%YAML 1.1
%TAG !u! tag:unity3d.com,2011:
--- !u!21 &2100000
Material:
  serializedVersion: 6
  m_ObjectHideFlags: 0
  m_CorrespondingSourceObject: {fileID: 0}
  m_PrefabInternal: {fileID: 0}
  m_Name: sutr_bu1
  m_Shader: {fileID: 4800000, guid: 8d838959c45812c4787980647b4dca87, type: 3}
  m_ShaderKeywords: 
  m_LightmapFlags: 4
  m_EnableInstancingVariants: 1
  m_DoubleSidedGI: 0
  m_CustomRenderQueue: -1
  stringTagMap: {}
  disabledShaderPasses: []
  m_SavedProperties:
    serializedVersion: 3
    m_TexEnvs:
    - Texture2D_14B3CE16:
        m_Texture: {fileID: 2800000, guid: d6cd6c5fe6a979640b7704ddcf2eaad1, type: 3}
        m_Scale: {x: 1, y: 1}
        m_Offset: {x: 0, y: 0}
    - Texture2D_555E5B20:
        m_Texture: {fileID: 2800000, guid: b804e3ae9c48e484ca2ad0cf3a992167, type: 3}
        m_Scale: {x: 1, y: 1}
        m_Offset: {x: 0, y: 0}
    - Texture2D_5639EDD8:
        m_Texture: {fileID: 2800000, guid: 6218b3b08d1fa0342bbdd1247e916126, type: 3}
        m_Scale: {x: 1, y: 1}
        m_Offset: {x: 0, y: 0}
    - Texture2D_D490A762:
        m_Texture: {fileID: 2800000, guid: 7cb3254f015101547a747b0267be9d40, type: 3}
        m_Scale: {x: 1, y: 1}
        m_Offset: {x: 0, y: 0}
    - _BumpMap:
        m_Texture: {fileID: 0}
        m_Scale: {x: 1, y: 1}
        m_Offset: {x: 0, y: 0}
    - _DetailAlbedoMap:
        m_Texture: {fileID: 0}
        m_Scale: {x: 1, y: 1}
        m_Offset: {x: 0, y: 0}
    - _DetailMask:
        m_Texture: {fileID: 0}
        m_Scale: {x: 1, y: 1}
        m_Offset: {x: 0, y: 0}
    - _DetailNormalMap:
        m_Texture: {fileID: 0}
        m_Scale: {x: 1, y: 1}
        m_Offset: {x: 0, y: 0}
    - _EmissionMap:
        m_Texture: {fileID: 0}
        m_Scale: {x: 1, y: 1}
        m_Offset: {x: 0, y: 0}
    - _MainTex:
        m_Texture: {fileID: 0}
        m_Scale: {x: 1, y: 1}
        m_Offset: {x: 0, y: 0}
    - _MetallicGlossMap:
        m_Texture: {fileID: 0}
        m_Scale: {x: 1, y: 1}
        m_Offset: {x: 0, y: 0}
    - _OcclusionMap:
        m_Texture: {fileID: 0}
        m_Scale: {x: 1, y: 1}
        m_Offset: {x: 0, y: 0}
    - _ParallaxMap:
        m_Texture: {fileID: 0}
        m_Scale: {x: 1, y: 1}
        m_Offset: {x: 0, y: 0}
    - _SampleTexture2D_14003057_Texture:
        m_Texture: {fileID: 2800000, guid: fbc06891c6a8e45479c9da71a11dd29f, type: 3}
        m_Scale: {x: 1, y: 1}
        m_Offset: {x: 0, y: 0}
    - _SampleTexture2D_25A2FC3E_Texture:
        m_Texture: {fileID: 2800000, guid: 11ce14a09cb5a964eb35cd2395b3d88e, type: 3}
        m_Scale: {x: 1, y: 1}
        m_Offset: {x: 0, y: 0}
    - _SampleTexture2D_2AC2DB45_Texture:
        m_Texture: {fileID: 2800000, guid: 870cbdce992de5e47bcca6451be61bfd, type: 3}
        m_Scale: {x: 1, y: 1}
        m_Offset: {x: 0, y: 0}
    - _SampleTexture2D_332F9058_Texture:
        m_Texture: {fileID: 2800000, guid: 13dedddbbef0424488d84984945eec6c, type: 3}
        m_Scale: {x: 1, y: 1}
        m_Offset: {x: 0, y: 0}
    - _SampleTexture2D_3678D61B_Texture:
        m_Texture: {fileID: 2800000, guid: 7710abab7e308884a9c7ba4451551ee3, type: 3}
        m_Scale: {x: 1, y: 1}
        m_Offset: {x: 0, y: 0}
    - _SampleTexture2D_4AF76902_Texture:
        m_Texture: {fileID: 2800000, guid: 6e13664deac33b24a9cac2347f9ae805, type: 3}
        m_Scale: {x: 1, y: 1}
        m_Offset: {x: 0, y: 0}
    - _SampleTexture2D_787C4D2E_Texture:
        m_Texture: {fileID: 2800000, guid: c76fd2d96d86d274aa6648f05615c62c, type: 3}
        m_Scale: {x: 1, y: 1}
        m_Offset: {x: 0, y: 0}
    - _SampleTexture2D_8A9C3FD8_Texture:
        m_Texture: {fileID: 2800000, guid: 8207fd90da3a5384a88b7a5d5aaa68eb, type: 3}
        m_Scale: {x: 1, y: 1}
        m_Offset: {x: 0, y: 0}
    - _SampleTexture2D_E16A1C65_Texture:
        m_Texture: {fileID: 2800000, guid: 9ccb04b223899564cae89cb88701a7d5, type: 3}
        m_Scale: {x: 1, y: 1}
        m_Offset: {x: 0, y: 0}
    - _SpecGlossMap:
        m_Texture: {fileID: 0}
        m_Scale: {x: 1, y: 1}
        m_Offset: {x: 0, y: 0}
    m_Floats:
    - Vector1_307DA8B1: 1
    - Vector1_31CE1748: 0
    - Vector1_69911E5F: 0
    - Vector1_989B88E4: 0
    - Vector1_9F651155: 0
    - Vector1_B05B9CD3: 0
    - Vector1_C01BD9FD: 0
    - Vector1_C9A18444: 0
    - Vector1_C9C5D7DF: 0
    - Vector1_E15EF5BA: 1
    - _AlphaClip: 0
    - _Blend: 0
    - _BumpScale: 1
    - _Cull: 2
    - _Cutoff: 0.5
    - _DetailNormalMapScale: 1
    - _DstBlend: 0
    - _GlossMapScale: 1
    - _Glossiness: 0.5
    - _GlossyReflections: 1
    - _Metallic: 0
    - _OcclusionStrength: 1
    - _Parallax: 0.02
    - _SmoothnessTextureChannel: 0
    - _SpecularHighlights: 1
    - _SrcBlend: 1
    - _Surface: 0
    - _UVSec: 0
    - _WorkflowMode: 1
    - _ZWrite: 1
    m_Colors:
    - Vector2_1EC7517E: {r: 1, g: 1, b: 0, a: 0}
    - Vector2_D0508EB4: {r: 1, g: 1, b: 0, a: 0}
    - _Color: {r: 0.5, g: 0.5, b: 0.5, a: 1}
    - _EmissionColor: {r: 0, g: 0, b: 0, a: 1}
    - _SpecColor: {r: 0.2, g: 0.2, b: 0.2, a: 1}
